IDENTIFICADOR,DESTINATARIOS,EN_COPIA_PUBLICA,EN_COPIA_OCULTA,ADJUNTOS,ASUNTO,CAMPO_OPCIONAL1,CAMPO_OPCIONAL2
100001,email1@dominio1.org,,,Estadísticas de uso(1).pdf,Informe mensual para [CAMPO_OPCIONAL1],Fulano,Tomate
100002,email2@dominio2.org,,,Estadísticas de uso(2).pdf,Informe mensual para [CAMPO_OPCIONAL1],Mengano,Patata
